…
# Regressão Linear
Regressão é utilizada para analisar relações entre variáveis contínuas. Em sua forma mais básica, descreve a relação linear entre uma variável preditora, representada graficamente no eixo X, e uma variável resposta, representada no eixo Y.
Para tornar a discussão mais palpável utilizaremos o conjunto de dados peopleanalyticsdata: :sociological_data que representam uma amostra de informações obtidas de indivíduos que participaram de um estudo de pesquisa global e contém os seguintes campos  <br/>
*````annual_income_ppp:```` A renda anual do indivíduo em dólares americanos PPP ajustados  <br/>
*```average_wk_horas:``` O número médio de horas semanais trabalhadas pelo indivíduo  <br/>
*````education_months:````O número total de meses gastos pelo indivíduo na educação formal primária, secundária e terciária  <br/>
*```family_size:``` O tamanho da família de dependentes do indivíduo  <br/>

```
A tibble: 2,618 x 4
   annual_income_ppp average_wk_hrs education_months family_size
               <int>          <int>            <int>       <int>
 1             66417             50              157           5
 2             55124             50              156           5
 3             55124             50              155           5
 4             54238             50              154           5
 5             53573             50              150           4
 6             52688             51              147           5
 7             52245             51              143           5
 8             51138             51              141           5
 9             49810             51              137           4
10             49367             51              134           4
# ... with 2,608 more rows
```
…
